{
    "button.aceptar": {
        "confidence": 80.0,
        "path": ".images\\button-aceptar-path.png",
        "source": null,
        "type": "image"
    },
    "button.cancel": {
        "confidence": 80.0,
        "path": ".images\\button-cancel-path.png",
        "source": null,
        "type": "image"
    },
    "button.cerrar": {
        "confidence": 80.0,
        "path": ".images\\button-cerrar-path.png",
        "source": null,
        "type": "image"
    },
    "button.cerrar-sin-guardar": {
        "confidence": 80.0,
        "path": ".images\\button-cerrarsinguardar-path.png",
        "source": null,
        "type": "image"
    },
    "button.cliente": {
        "confidence": 100.0,
        "path": ".images\\button-cliente-path.png",
        "source": null,
        "type": "image"
    },
    "button.crear.cliente": {
        "confidence": 87.0,
        "path": ".images\\button-crear-cliente-path.png",
        "source": null,
        "type": "image"
    },
    "button.inicio.ok": {
        "confidence": 100.0,
        "path": ".images\\button-inicio-ok-path.png",
        "source": null,
        "type": "image"
    },
    "button.negocios": {
        "confidence": 80.0,
        "path": ".images\\button-negocios-path.png",
        "source": null,
        "type": "image"
    },
    "ok_inicio": {
        "confidence": 100.0,
        "path": ".images\\ok_inicio-path.png",
        "source": null,
        "type": "image"
    }
}